[{
    "id": "cc129915-4e15-4df0-83d1-add3208bf5d1",
    "is_active": 1,
    "id_pekerjaan": "PK001",
    "nama_pekerjaan": "Pejabat Negara",
    "id_user": "SYSTEM"
}, {
    "id": "79995ef9-440b-48f1-8898-a70fc7c4f879",
    "is_active": 1,
    "id_pekerjaan": "PK002",
    "nama_pekerjaan": "Pegawai Negeri Sipil",
    "id_user": "SYSTEM"
}, {
    "id": "6370239e-925f-46b9-821e-7d08d10be5ca",
    "is_active": 1,
    "id_pekerjaan": "PK003",
    "nama_pekerjaan": "TNI / POLRI",
    "id_user": "SYSTEM"
}, {
    "id": "990763b4-9753-41dd-b748-4dcec32811bb",
    "is_active": 1,
    "id_pekerjaan": "PK004",
    "nama_pekerjaan": "Pegawai Swasta",
    "id_user": "SYSTEM"
}, {
    "id": "d731c832-7a88-472b-ab4b-479c77d8b1c0",
    "is_active": 1,
    "id_pekerjaan": "PK005",
    "nama_pekerjaan": "Lainnya",
    "id_user": "SYSTEM"
}, {
    "id": "1d7d97d3-bc96-4874-9c5d-0e620f029392",
    "is_active": 1,
    "id_pekerjaan": "PK006",
    "nama_pekerjaan": "TKI",
    "id_user": "SYSTEM"
}, {
    "id": "14e673f7-de80-4689-b95b-f04d56d8ff92",
    "is_active": 1,
    "id_pekerjaan": "PK007",
    "nama_pekerjaan": "Administrator TI",
    "id_user": "SYSTEM"
}, {
    "id": "cd22ac19-427b-4c93-8ef8-491767326688",
    "is_active": 1,
    "id_pekerjaan": "PK008",
    "nama_pekerjaan": "Administratur",
    "id_user": "SYSTEM"
}, {
    "id": "e7ba12cc-4440-49d5-87d7-cd88c51846c0",
    "is_active": 1,
    "id_pekerjaan": "PK009",
    "nama_pekerjaan": "Administratur Export",
    "id_user": "SYSTEM"
}, {
    "id": "785124e7-4f8c-45f8-88fb-0c7396679d82",
    "is_active": 1,
    "id_pekerjaan": "PK010",
    "nama_pekerjaan": "Administratur Import",
    "id_user": "SYSTEM"
}, {
    "id": "e1ecffd6-0579-4561-b449-040e6d9f75a8",
    "is_active": 1,
    "id_pekerjaan": "PK011",
    "nama_pekerjaan": "Agen Real Estat",
    "id_user": "SYSTEM"
}, {
    "id": "8b4fdb31-70cb-42fc-987c-e8228aa63220",
    "is_active": 1,
    "id_pekerjaan": "PK012",
    "nama_pekerjaan": "Ahli Ekonomi",
    "id_user": "SYSTEM"
}, {
    "id": "741050af-8d83-465f-bca7-56c2632db7a1",
    "is_active": 1,
    "id_pekerjaan": "PK013",
    "nama_pekerjaan": "Ahli Geologi",
    "id_user": "SYSTEM"
}, {
    "id": "ac10618d-9fd4-4e61-8bc6-7b2b2d8ce81b",
    "is_active": 1,
    "id_pekerjaan": "PK014",
    "nama_pekerjaan": "Ahli Gizi",
    "id_user": "SYSTEM"
}, {
    "id": "c6641a98-308d-4f64-bbbe-b4d8bf05e536",
    "is_active": 1,
    "id_pekerjaan": "PK015",
    "nama_pekerjaan": "Aktuaria",
    "id_user": "SYSTEM"
}, {
    "id": "97682ea6-e6cc-4b68-ad98-eca9e49d0566",
    "is_active": 1,
    "id_pekerjaan": "PK016",
    "nama_pekerjaan": "Akuntan",
    "id_user": "SYSTEM"
}, {
    "id": "602e1b0d-8bed-45f4-9166-d0bce2c1bd34",
    "is_active": 1,
    "id_pekerjaan": "PK017",
    "nama_pekerjaan": "Akuntan Keuangan",
    "id_user": "SYSTEM"
}, {
    "id": "aaa0203d-7769-4029-b4ee-d3d6e5a757c5",
    "is_active": 1,
    "id_pekerjaan": "PK018",
    "nama_pekerjaan": "Akuntan Perpajakan",
    "id_user": "SYSTEM"
}, {
    "id": "6495dc15-88fe-4397-bfc4-9135cc9e70d5",
    "is_active": 1,
    "id_pekerjaan": "PK019",
    "nama_pekerjaan": "Akuntan Publik",
    "id_user": "SYSTEM"
}, {
    "id": "b06e4897-a801-4265-96ef-59ca0f7a278f",
    "is_active": 1,
    "id_pekerjaan": "PK020",
    "nama_pekerjaan": "Apoteker",
    "id_user": "SYSTEM"
}, {
    "id": "c13fb96c-9d5e-4b70-8f94-2e5c79bafd1c",
    "is_active": 1,
    "id_pekerjaan": "PK021",
    "nama_pekerjaan": "Broker Asuransi",
    "id_user": "SYSTEM"
}, {
    "id": "f2ebb39c-a1a4-410d-96dc-aef6d9113435",
    "is_active": 1,
    "id_pekerjaan": "PK022",
    "nama_pekerjaan": "Broker Saham",
    "id_user": "SYSTEM"
}, {
    "id": "6ea16252-b60e-4a97-87ba-fd7a35d97923",
    "is_active": 1,
    "id_pekerjaan": "PK023",
    "nama_pekerjaan": "Buruh",
    "id_user": "SYSTEM"
}, {
    "id": "9d211642-35db-4ef5-b35b-9cb32f0ca133",
    "is_active": 1,
    "id_pekerjaan": "PK024",
    "nama_pekerjaan": "Camat",
    "id_user": "SYSTEM"
}, {
    "id": "a274a49a-cedd-48c1-87f8-147420d8b14f",
    "is_active": 1,
    "id_pekerjaan": "PK025",
    "nama_pekerjaan": "Desainer",
    "id_user": "SYSTEM"
}, {
    "id": "560cbc4d-6445-492a-bafb-1672b0bfe457",
    "is_active": 1,
    "id_pekerjaan": "PK026",
    "nama_pekerjaan": "Desainer Grafis Komputer",
    "id_user": "SYSTEM"
}, {
    "id": "d37f41ea-777e-47e1-b0fb-e6163de1964f",
    "is_active": 1,
    "id_pekerjaan": "PK027",
    "nama_pekerjaan": "Dokter",
    "id_user": "SYSTEM"
}, {
    "id": "8ac8ee15-dfbd-425b-87d6-a8ae6d7fdf57",
    "is_active": 1,
    "id_pekerjaan": "PK028",
    "nama_pekerjaan": "Dosen",
    "id_user": "SYSTEM"
}, {
    "id": "d0d1fb1b-6eeb-4d91-a7e4-9234670123ef",
    "is_active": 1,
    "id_pekerjaan": "PK029",
    "nama_pekerjaan": "Editor",
    "id_user": "SYSTEM"
}, {
    "id": "e80b37ca-3dd5-420b-8025-88ac038e8e8c",
    "is_active": 1,
    "id_pekerjaan": "PK030",
    "nama_pekerjaan": "Fasset",
    "id_user": "SYSTEM"
}, {
    "id": "09e72f12-7b5a-44e1-9612-666abedf31e1",
    "is_active": 1,
    "id_pekerjaan": "PK031",
    "nama_pekerjaan": "Fisikawan",
    "id_user": "SYSTEM"
}, {
    "id": "2355a79b-d9c2-4fc5-a1ea-20dc84221c92",
    "is_active": 1,
    "id_pekerjaan": "PK032",
    "nama_pekerjaan": "Fotografer",
    "id_user": "SYSTEM"
}, {
    "id": "465e3ae8-145e-4665-b94e-ca854f5faf25",
    "is_active": 1,
    "id_pekerjaan": "PK033",
    "nama_pekerjaan": "Geofisikawan",
    "id_user": "SYSTEM"
}, {
    "id": "7376cc32-902e-432a-9d34-17913c095985",
    "is_active": 1,
    "id_pekerjaan": "PK034",
    "nama_pekerjaan": "Guru \/ Tutor",
    "id_user": "SYSTEM"
}, {
    "id": "889ecd3c-5a1d-49c0-b6be-64501e5c1a4d",
    "is_active": 1,
    "id_pekerjaan": "PK035",
    "nama_pekerjaan": "Hakim",
    "id_user": "SYSTEM"
}, {
    "id": "090a4d54-3323-47d9-a0c5-0aae87aac132",
    "is_active": 1,
    "id_pekerjaan": "PK036",
    "nama_pekerjaan": "Ilmuwan",
    "id_user": "SYSTEM"
}, {
    "id": "7918e29d-484b-43b6-ab87-767c27debb25",
    "is_active": 1,
    "id_pekerjaan": "PK037",
    "nama_pekerjaan": "Ilustrator",
    "id_user": "SYSTEM"
}, {
    "id": "f893a516-9af6-42e1-b997-9bee034b1419",
    "is_active": 1,
    "id_pekerjaan": "PK038",
    "nama_pekerjaan": "Jaksa",
    "id_user": "SYSTEM"
}, {
    "id": "f0e96299-f158-4ac7-9310-4608d79a4334",
    "is_active": 1,
    "id_pekerjaan": "PK039",
    "nama_pekerjaan": "Jurnalisme",
    "id_user": "SYSTEM"
}, {
    "id": "7f70f7bc-0d3d-4b77-9fb4-a185638d6ce7",
    "is_active": 1,
    "id_pekerjaan": "PK040",
    "nama_pekerjaan": "Jurnalisme Teknik",
    "id_user": "SYSTEM"
}, {
    "id": "72962fff-bfa8-4391-9732-6b38977199bf",
    "is_active": 1,
    "id_pekerjaan": "PK041",
    "nama_pekerjaan": "Juru Gambar",
    "id_user": "SYSTEM"
}, {
    "id": "a6ba55b9-67a1-49fe-b03a-d30c53d82471",
    "is_active": 1,
    "id_pekerjaan": "PK042",
    "nama_pekerjaan": "Juru Masak",
    "id_user": "SYSTEM"
}, {
    "id": "1c0cdc5d-01bc-4a68-94ea-ef1f64c84ae8",
    "is_active": 1,
    "id_pekerjaan": "PK043",
    "nama_pekerjaan": "Kapten Laut",
    "id_user": "SYSTEM"
}, {
    "id": "54645ecc-4cea-4377-b7f4-e11ad79d0a41",
    "is_active": 1,
    "id_pekerjaan": "PK044",
    "nama_pekerjaan": "Kapten Pilot",
    "id_user": "SYSTEM"
}, {
    "id": "d0bd7e68-44ea-4838-9b70-fe22c595ac41",
    "is_active": 1,
    "id_pekerjaan": "PK045",
    "nama_pekerjaan": "Kasir",
    "id_user": "SYSTEM"
}, {
    "id": "00a7ad35-87ae-468d-b631-26c3688988d2",
    "is_active": 1,
    "id_pekerjaan": "PK046",
    "nama_pekerjaan": "Kepala Sekolah",
    "id_user": "SYSTEM"
}, {
    "id": "c5c39bd4-3ca0-4e48-b28e-ce223a994d93",
    "is_active": 1,
    "id_pekerjaan": "PK047",
    "nama_pekerjaan": "Kimiawan",
    "id_user": "SYSTEM"
}, {
    "id": "d64a4e52-2b83-4c26-92da-3cdfc917b96e",
    "is_active": 1,
    "id_pekerjaan": "PK048",
    "nama_pekerjaan": "Koki",
    "id_user": "SYSTEM"
}, {
    "id": "8656cd8d-f4e1-4312-81ce-8fee9a24e283",
    "is_active": 1,
    "id_pekerjaan": "PK049",
    "nama_pekerjaan": "Kolektor",
    "id_user": "SYSTEM"
}, {
    "id": "4df4135c-6597-4ea5-bc6c-291dd9b6310e",
    "is_active": 1,
    "id_pekerjaan": "PK050",
    "nama_pekerjaan": "Kondektur",
    "id_user": "SYSTEM"
}, {
    "id": "fe32e051-c9d8-46c9-9ed2-c7f7cdc39a61",
    "is_active": 1,
    "id_pekerjaan": "PK051",
    "nama_pekerjaan": "Konsultan",
    "id_user": "SYSTEM"
}, {
    "id": "9e6fbdf8-712d-48c7-9f79-5be5efb49b08",
    "is_active": 1,
    "id_pekerjaan": "PK052",
    "nama_pekerjaan": "Manajer",
    "id_user": "SYSTEM"
}, {
    "id": "751d480f-be43-45d9-9edd-f0b00941d854",
    "is_active": 1,
    "id_pekerjaan": "PK053",
    "nama_pekerjaan": "Masinis",
    "id_user": "SYSTEM"
}, {
    "id": "764dc456-253c-45b3-8cc1-76cfb113b39b",
    "is_active": 1,
    "id_pekerjaan": "PK054",
    "nama_pekerjaan": "Nelayan",
    "id_user": "SYSTEM"
}, {
    "id": "7090ce76-ca71-4607-852c-f8b8ebe8cfc0",
    "is_active": 1,
    "id_pekerjaan": "PK055",
    "nama_pekerjaan": "Network Engineer TI",
    "id_user": "SYSTEM"
}, {
    "id": "8da7c1bd-e4e0-4a2a-9527-0b5eaf8dc803",
    "is_active": 1,
    "id_pekerjaan": "PK056",
    "nama_pekerjaan": "Notaris",
    "id_user": "SYSTEM"
}, {
    "id": "53348938-5a3e-4ad3-8660-2a62f95fa7a7",
    "is_active": 1,
    "id_pekerjaan": "PK057",
    "nama_pekerjaan": "Pastur\/Pendeta",
    "id_user": "SYSTEM"
}, {
    "id": "ee280101-2e1d-416c-90f0-102b18e245bf",
    "is_active": 1,
    "id_pekerjaan": "PK058",
    "nama_pekerjaan": "Pelatih",
    "id_user": "SYSTEM"
}, {
    "id": "c7aa7bf0-72c6-4972-8d64-8e13cac1e0b6",
    "is_active": 1,
    "id_pekerjaan": "PK059",
    "nama_pekerjaan": "Pelukis",
    "id_user": "SYSTEM"
}, {
    "id": "055dc01c-9258-4ae7-bfef-d2dc6bfd3835",
    "is_active": 1,
    "id_pekerjaan": "PK060",
    "nama_pekerjaan": "Pemandu Wisata",
    "id_user": "SYSTEM"
}, {
    "id": "ece6d5fb-6791-441d-8838-8f4b081416fd",
    "is_active": 1,
    "id_pekerjaan": "PK061",
    "nama_pekerjaan": "Penari",
    "id_user": "SYSTEM"
}, {
    "id": "26f75d48-db4d-4980-baf5-40226764b0ea",
    "is_active": 1,
    "id_pekerjaan": "PK062",
    "nama_pekerjaan": "Pengacara",
    "id_user": "SYSTEM"
}, {
    "id": "eeebbac6-e14b-4f76-8d62-3de98d6461a9",
    "is_active": 1,
    "id_pekerjaan": "PK063",
    "nama_pekerjaan": "Penterjemah",
    "id_user": "SYSTEM"
}, {
    "id": "9b07272d-29c1-489f-bbc8-406eda01bd32",
    "is_active": 1,
    "id_pekerjaan": "PK064",
    "nama_pekerjaan": "Penyanyi",
    "id_user": "SYSTEM"
}, {
    "id": "898ff994-2de4-4967-ba43-7a615a77251e",
    "is_active": 1,
    "id_pekerjaan": "PK065",
    "nama_pekerjaan": "Penyiar, TV\/Radio",
    "id_user": "SYSTEM"
}, {
    "id": "a8903f95-50ca-4f13-97b8-940c73274e63",
    "is_active": 1,
    "id_pekerjaan": "PK066",
    "nama_pekerjaan": "Perawat",
    "id_user": "SYSTEM"
}, {
    "id": "53adf681-1112-4a35-9dd7-62d9d625ed59",
    "is_active": 1,
    "id_pekerjaan": "PK067",
    "nama_pekerjaan": "Programmer TI",
    "id_user": "SYSTEM"
}, {
    "id": "38ce3a59-0292-47bd-a59c-f65aa69ed3c8",
    "is_active": 1,
    "id_pekerjaan": "PK068",
    "nama_pekerjaan": "Pramugari\/Pramugara",
    "id_user": "SYSTEM"
}, {
    "id": "f45667ee-a753-4f83-92e8-201d8213d0e0",
    "is_active": 1,
    "id_pekerjaan": "PK069",
    "nama_pekerjaan": "Pustakawan",
    "id_user": "SYSTEM"
}, {
    "id": "4f208223-7b6e-4834-8c7f-03d71e9c7690",
    "is_active": 1,
    "id_pekerjaan": "PK070",
    "nama_pekerjaan": "Reporter",
    "id_user": "SYSTEM"
}, {
    "id": "25ba28f0-5547-41ad-89cd-7400b7380121",
    "is_active": 1,
    "id_pekerjaan": "PK071",
    "nama_pekerjaan": "Resepsionis",
    "id_user": "SYSTEM"
}, {
    "id": "c60f0414-4213-424d-9e70-bb98ad6af16d",
    "is_active": 1,
    "id_pekerjaan": "PK072",
    "nama_pekerjaan": "Satrawan",
    "id_user": "SYSTEM"
}, {
    "id": "38e00857-3352-4dee-814c-f07ee2716691",
    "is_active": 1,
    "id_pekerjaan": "PK073",
    "nama_pekerjaan": "Satuan PENGAMANAN",
    "id_user": "SYSTEM"
}, {
    "id": "ca6fd24b-11e9-4395-9f35-fdf21baa1726",
    "is_active": 1,
    "id_pekerjaan": "PK074",
    "nama_pekerjaan": "Sekretaris",
    "id_user": "SYSTEM"
}, {
    "id": "a85656e4-804c-4ffe-8525-4ac8da7d8908",
    "is_active": 1,
    "id_pekerjaan": "PK075",
    "nama_pekerjaan": "Supir",
    "id_user": "SYSTEM"
}, {
    "id": "f3fa61aa-ca73-43c0-a9db-ff935fc2fa45",
    "is_active": 1,
    "id_pekerjaan": "PK076",
    "nama_pekerjaan": "System Analyst TI",
    "id_user": "SYSTEM"
}, {
    "id": "21542a6d-e409-473f-a5d5-66c3fb8d6a71",
    "is_active": 1,
    "id_pekerjaan": "PK077",
    "nama_pekerjaan": "Systems Engineer TI",
    "id_user": "SYSTEM"
}, {
    "id": "9a6980ec-9a87-4145-9aab-bff050e2be95",
    "is_active": 1,
    "id_pekerjaan": "PK078",
    "nama_pekerjaan": "Teknisi",
    "id_user": "SYSTEM"
}, {
    "id": "f70619ed-8532-4bec-b526-6e6b44101b0f",
    "is_active": 1,
    "id_pekerjaan": "PK079",
    "nama_pekerjaan": "Terapis",
    "id_user": "SYSTEM"
}, {
    "id": "b50c4c5f-c48c-4523-be0c-24addfae3d15",
    "is_active": 1,
    "id_pekerjaan": "PK080",
    "nama_pekerjaan": "Wartawan",
    "id_user": "SYSTEM"
}, {
    "id": "814cb91a-45e4-461d-b201-c7651e5f45f3",
    "is_active": 1,
    "id_pekerjaan": "PK081",
    "nama_pekerjaan": "Web Developer TI",
    "id_user": "SYSTEM"
}, {
    "id": "1fcf871b-33de-482e-aa0c-2399eac64c41",
    "is_active": 1,
    "id_pekerjaan": "PK082",
    "nama_pekerjaan": "Web Master TI",
    "id_user": "SYSTEM"
}, {
    "id": "04a9cb45-2a93-4aae-a5be-6f2c62fd902e",
    "is_active": 1,
    "id_pekerjaan": "PK083",
    "nama_pekerjaan": "Wiraswasta",
    "id_user": "SYSTEM"
}, {
    "id": "663cab8b-07de-4a82-b7fc-1c81d4ee0872",
    "is_active": 1,
    "id_pekerjaan": "PK084",
    "nama_pekerjaan": "Pegawai Bank Indonesia",
    "id_user": "SYSTEM"
}]