{
    "MESSAGE": "SUCCESS",
    "CODE": "200",
    "SUCCESS": true,
    "AVAILABLE": [{
            "DATE": "2019-08-19",
            "QUOTA_TOTAL": 30,
            "AVAIL_TOTAL": 30,
            "PARTICIPANT": 0
        },
        {
            "DATE": "2019-08-20",
            "QUOTA_TOTAL": 30,
            "AVAIL_TOTAL": 30,
            "PARTICIPANT": 0
        },
        {
            "DATE": "2019-08-21",
            "QUOTA_TOTAL": 30, 
            "AVAIL_TOTAL": 20,
            "PARTICIPANT": 10
        },
        {
            "DATE": "2019-08-22",
            "QUOTA_TOTAL": 30,
            "AVAIL_TOTAL": 24,
            "PARTICIPANT": 6
        },
        {
            "DATE": "2019-08-23",
            "QUOTA_TOTAL": 30,
            "AVAIL_TOTAL": 30,
            "PARTICIPANT": 0
        }
    ]
}